﻿{
  "webroot": "wwwroot",
  "userSecretsId": "aspnet5-$safeprojectname$-$guid2$",
  "version": "1.0.0-*",

  "dependencies": {
    "Microsoft.AspNet.Authentication.Cookies": "1.0.0-beta8",
    "Microsoft.AspNet.Authentication.OpenIdConnect": "1.0.0-beta8",
    "Microsoft.AspNet.Diagnostics": "1.0.0-beta8",
    "Microsoft.AspNet.IISPlatformHandler": "1.0.0-beta8",
    "Microsoft.AspNet.Mvc": "6.0.0-beta8",
    "Microsoft.AspNet.Mvc.TagHelpers": "6.0.0-beta8",
    "Microsoft.AspNet.Server.Kestrel": "1.0.0-beta8",
    "Microsoft.AspNet.StaticFiles": "1.0.0-beta8",
    "Microsoft.AspNet.Tooling.Razor": "1.0.0-beta8",
    "Microsoft.Dnx.Runtime": "1.0.0-beta8",
    "Microsoft.Framework.Configuration.Json": "1.0.0-beta8",
    "Microsoft.Framework.Configuration.UserSecrets": "1.0.0-beta8",
    "Microsoft.Framework.Logging": "1.0.0-beta8",
    "Microsoft.Framework.Logging.Console": "1.0.0-beta8",
    "Microsoft.Framework.Logging.Debug" : "1.0.0-beta8",
    "Microsoft.VisualStudio.Web.BrowserLink.Loader": "14.0.0-beta8"
  },
  "commands": {
    "web": "Microsoft.AspNet.Server.Kestrel"
  },

  "frameworks": {
    "dnx451": { },
    "dnxcore50": { }
  },

  "exclude": [
    "wwwroot",
    "node_modules"
  ],
  "publishExclude": [
    "**.user",
    "**.vspscc"
  ],
  "scripts": {
    "prepublish": [ "npm install", "bower install", "gulp clean", "gulp min" ]
  }
}
